<svg width="30" height="30" viewBox="0 0 30 30" fill="none" xmlns="http://www.w3.org/2000/svg">
<path d="M10.625 13.125H19.375" stroke="#292D32" stroke-width="2" stroke-miterlimit="10" stroke-linecap="round" stroke-linejoin="round"/>
<path d="M8.75 23.0377H13.75L19.3125 26.7377C20.1375 27.2877 21.25 26.7002 21.25 25.7002V23.0377C25 23.0377 27.5 20.5377 27.5 16.7877V9.28772C27.5 5.53772 25 3.03772 21.25 3.03772H8.75C5 3.03772 2.5 5.53772 2.5 9.28772V16.7877C2.5 20.5377 5 23.0377 8.75 23.0377Z" stroke="#292D32" stroke-width="2" stroke-miterlimit="10" stroke-linecap="round" stroke-linejoin="round"/>
</svg>
