<svg width="19" height="17" viewBox="0 0 19 17" fill="none" xmlns="http://www.w3.org/2000/svg">
<path d="M4.09438 17L9.63812 14.1247L15.1819 17L14.1233 10.8578L18.5864 6.51026L12.3986 5.61293L9.63812 0L6.87766 5.61293L0.689819 6.51026L5.17575 10.8578L4.09438 17Z" fill="#D9D9D9"/>
</svg>
