[
    {
        "id":"1",
        "dob": "2000-06-01 00:00:00.000",
        "email":"rubenkur1@mail.ru",
        "name": "Ruben",
        "surname":"Kurbanov",
        "phone":"+420 720 293 310",
        "cards":[],
        "cars": [],
        "favorites":[],
        "orders":[],
        "is_male": true

    }
]